{
    "image": "assets/images/alpha.png",
    "filters": [
        {
            "type": "dropdown",
            "name": "Component",
            "options": [
                {
                    "code": "company",
                    "name": "Company"
                },
                {
                    "code": "mf",
                    "name": "MF"
                },
                {
                    "code": "macroeconomic",
                    "name": "Macroeconomic"
                }
            ]
        },
        {
            "type": "dropdown",
            "name": "Metric",
            "options": [
                {
                    "code": "price",
                    "name": "Price"
                },
                {
                    "code": "p/e",
                    "name": "P/E"
                }
            ]
        },
        {
            "type": "dropdown",
            "name": "Company",
            "options": [
                {
                    "code": "aapl",
                    "name": "AAPL"
                }
            ]
        },
        {
            "type": "date",
            "name": "Start Date"
        },
        {
            "type": "date",
            "name": "End Date"
        }
    ]
}
