<?xml version="1.0" encoding="utf-8"?>
<!-- Generator: Adobe Illustrator 19.2.0, SVG Export Plug-In . SVG Version: 6.00 Build 0)  -->
<svg version="1.1" id="レイヤー_1" xmlns="http://www.w3.org/2000/svg" xmlns:xlink="http://www.w3.org/1999/xlink" x="0px"
	 y="0px" viewBox="0 0 198 39" style="enable-background:new 0 0 198 39;" xml:space="preserve">
<style type="text/css">
	.st0{fill:#656464;}
	.st1{fill:url(#XMLID_2_);}
	.st2{fill:#FFFFFF;}
	.st3{fill:url(#XMLID_3_);}
	.st4{fill:#8BD0E3;}
	.st5{fill:#113576;}
	.st6{fill:#B1DEE9;}
	.st7{fill:#E5D8E8;}
	.st8{fill:#31BADA;}
	.st9{fill:#146FAF;}
	.st10{fill:url(#XMLID_4_);}
	.st11{fill:url(#XMLID_5_);}
</style>
<g>
	<g id="XMLID_1649_">
		<g id="XMLID_1650_">
			<path id="XMLID_1665_" class="st0" d="M65.1,26.6c0,0.6,0,0.6-0.3,0.8c-1.6,0.8-3.9,1-5.8,1c-5.8,0-10.9-2.6-10.9-9
				c0-3.7,2-6.2,4.1-7.5c2.3-1.3,4.4-1.5,6.4-1.5c1.6,0,3.7,0.3,4.2,0.4c0.5,0.1,1.3,0.2,1.9,0.2c0.3,0,0.3,0.1,0.3,0.3
				c0,0.3-0.2,0.9-0.2,3.8c0,0.3-0.1,0.5-0.3,0.5c-0.2,0-0.2-0.1-0.2-0.3c-0.1-0.5-0.2-1.2-0.8-1.9c-0.7-0.7-2.5-1.7-5.1-1.7
				c-1.3,0-2.9,0-4.6,1.3c-1.3,1.1-2.2,2.8-2.2,5.6c0,4.9,3.2,8.5,8.2,8.5c0.6,0,1.1,0,1.7-0.2c0.3-0.2,0.5-0.4,0.5-0.8V24
				c0-1.1,0-2,0-2.7c0-0.8-0.3-1-1-1.2C60.7,20,60.3,20,59.9,20c-0.2,0-0.4-0.1-0.4-0.2c0-0.2,0.2-0.2,0.5-0.2
				c1.2,0,2.9,0.1,3.6,0.1c0.8,0,2-0.1,2.8-0.1c0.3,0,0.5,0,0.5,0.2c0,0.1-0.1,0.2-0.3,0.2c-0.2,0-0.4,0-0.6,0.1
				c-0.6,0.1-0.9,0.4-0.9,1.2c0,0.7,0,1.6,0,2.7V26.6z"/>
			<path id="XMLID_1662_" class="st0" d="M79.4,22.4c-0.1,0-0.2,0-0.2,0.2L78,25.6c-0.2,0.6-0.3,1.1-0.3,1.4c0,0.4,0.2,0.6,0.9,0.6
				h0.4c0.3,0,0.3,0.1,0.3,0.2c0,0.2-0.1,0.2-0.4,0.2c-0.8,0-1.9-0.1-2.6-0.1c-0.2,0-1.5,0.1-2.7,0.1c-0.3,0-0.4-0.1-0.4-0.2
				c0-0.1,0.1-0.2,0.3-0.2c0.2,0,0.5,0,0.7,0c1.1-0.2,1.5-0.9,2-2l6.2-14.4c0.3-0.6,0.5-0.9,0.7-0.9c0.3,0,0.5,0.2,0.7,0.7
				c0.6,1.3,4.5,10.6,6,14.1c0.9,2.1,1.6,2.4,2,2.4c0.3,0.1,0.6,0.1,0.9,0.1c0.2,0,0.3,0.1,0.3,0.2c0,0.2-0.1,0.2-1,0.2
				c-0.8,0-2.6,0-4.5-0.1c-0.4,0-0.7,0-0.7-0.2c0-0.1,0.1-0.2,0.3-0.2c0.2,0,0.3-0.2,0.2-0.5l-1.8-4.6c-0.1-0.1-0.1-0.2-0.2-0.2
				H79.4z M84.5,21.1c0.1,0,0.1-0.1,0.1-0.1l-2.2-5.8c0-0.1-0.1-0.2-0.1-0.2c-0.1,0-0.1,0.1-0.1,0.2L79.8,21c-0.1,0.1,0,0.2,0.1,0.2
				H84.5z"/>
			<path id="XMLID_1659_" class="st0" d="M102.1,17.5c0-3.5,0-4.1,0-4.8c-0.1-0.8-0.3-1-1-1.2c-0.2-0.1-0.6-0.1-0.9-0.1
				c-0.2,0-0.4-0.1-0.4-0.2s0.2-0.2,0.5-0.2c1.2,0,2.7,0.1,3.2,0.1c0.8,0,3-0.1,3.7-0.1c1.5,0,3.2,0.1,4.5,1
				c0.7,0.5,1.7,1.6,1.7,3.1c0,1.7-1,3.2-3.3,5.1c2.1,2.6,3.8,4.7,5.2,6.1c1.3,1.3,2.2,1.4,2.5,1.5c0.2,0.1,0.4,0.1,0.6,0.1
				s0.3,0.1,0.3,0.2c0,0.2-0.2,0.2-0.5,0.2H116c-1.3,0-2-0.1-2.6-0.5c-1-0.5-1.9-1.6-3.2-3.4c-0.9-1.2-1.9-2.8-2.2-3.1
				c-0.1-0.1-0.3-0.2-0.4-0.2l-2.1-0.1c-0.1,0-0.2,0.1-0.2,0.2v0.3c0,2.1,0,3.9,0.1,4.9c0.1,0.7,0.2,1.1,0.9,1.2
				c0.3,0.1,0.9,0.1,1.2,0.1c0.2,0,0.3,0.1,0.3,0.2c0,0.2-0.2,0.2-0.5,0.2c-1.4,0-3.3-0.1-3.7-0.1c-0.5,0-2,0.1-2.9,0.1
				c-0.3,0-0.5-0.1-0.5-0.2c0-0.1,0.1-0.2,0.4-0.2c0.3,0,0.6,0,0.8-0.1c0.5-0.1,0.6-0.5,0.7-1.2c0.1-1,0.1-2.8,0.1-4.9V17.5z
				 M105.2,19.2c0,0.2,0.1,0.3,0.2,0.4c0.5,0.2,1.2,0.2,1.8,0.2c0.9,0,1.3-0.1,1.7-0.4c0.7-0.5,1.5-1.5,1.5-3.4
				c0-3.2-2.2-4.1-3.6-4.1c-0.6,0-1.2,0-1.4,0.1c-0.2,0.1-0.2,0.1-0.2,0.3V19.2z"/>
			<path id="XMLID_1657_" class="st0" d="M126.3,17.5c0-3.5,0-4.1,0-4.8c-0.1-0.8-0.3-1-1-1.2c-0.2-0.1-0.6-0.1-0.9-0.1
				c-0.3,0-0.4-0.1-0.4-0.2s0.2-0.2,0.5-0.2c1.3,0,2.9,0.1,3.6,0.1c0.6,0,2.2-0.1,3-0.1c0.4,0,0.5,0.1,0.5,0.2s-0.1,0.2-0.4,0.2
				c-0.3,0-0.4,0-0.7,0.1c-0.6,0.1-0.8,0.4-0.9,1.2c-0.1,0.7-0.1,1.4-0.1,4.8v3.2c0,3.3,0.6,4.6,1.8,5.5c1,0.8,2.2,0.9,3,0.9
				c1,0,2.2-0.3,3.2-1.2c1.3-1.2,1.4-3.2,1.4-5.6v-2.9c0-3.5,0-4.1-0.1-4.8c-0.1-0.8-0.2-1-1-1.2c-0.2-0.1-0.6-0.1-0.9-0.1
				s-0.4-0.1-0.4-0.2s0.2-0.2,0.5-0.2c1.2,0,2.8,0.1,2.8,0.1c0.3,0,1.9-0.1,2.8-0.1c0.3,0,0.5,0.1,0.5,0.2s-0.1,0.2-0.4,0.2
				s-0.4,0-0.7,0.1c-0.6,0.1-0.8,0.4-0.9,1.2c0,0.7-0.1,1.4-0.1,4.8v2.4c0,2.6-0.3,5.2-2.3,6.9c-1.7,1.4-3.5,1.6-5,1.6
				c-1.2,0-3.7-0.1-5.4-1.6c-1.2-1-2.2-2.7-2.2-6V17.5z"/>
			<path id="XMLID_1654_" class="st0" d="M154.5,17.5c0-3.5,0-4.1,0-4.8c-0.1-0.8-0.3-1-1-1.2c-0.2-0.1-0.6-0.1-0.9-0.1
				c-0.2,0-0.4-0.1-0.4-0.2s0.2-0.2,0.5-0.2c1.2,0,2.7,0.1,3.4,0.1c0.7,0,2.4-0.1,3.8-0.1c3,0,6.9,0,9.5,2.6
				c1.2,1.2,2.2,3.1,2.2,5.8c0,2.9-1.2,5.1-2.6,6.4c-1.1,1.1-3.6,2.7-7.9,2.7c-0.9,0-1.9-0.1-2.8-0.1c-0.9-0.1-1.8-0.1-2.4-0.1
				c-0.3,0-0.8,0-1.3,0c-0.6,0-1.2,0.1-1.6,0.1c-0.3,0-0.5-0.1-0.5-0.2c0-0.1,0.1-0.2,0.4-0.2c0.3,0,0.6,0,0.8-0.1
				c0.5-0.1,0.6-0.5,0.7-1.2c0.1-1,0.1-2.8,0.1-4.9V17.5z M157.7,20c0,2.4,0,4.2,0.1,4.6c0,0.6,0.1,1.4,0.3,1.6
				c0.3,0.4,1.2,0.9,3.1,0.9c2.2,0,3.7-0.4,5.2-1.6c1.5-1.3,2-3.3,2-5.7c0-2.9-1.2-4.8-2.2-5.7c-2.2-1.9-4.8-2.2-6.6-2.2
				c-0.5,0-1.3,0.1-1.5,0.2c-0.2,0.1-0.3,0.2-0.3,0.5c0,0.8,0,2.7,0,4.5V20z"/>
			<path id="XMLID_1651_" class="st0" d="M184.6,22.4c-0.1,0-0.2,0-0.2,0.2l-1.3,3.1c-0.2,0.6-0.3,1.1-0.3,1.4
				c0,0.4,0.2,0.6,0.9,0.6h0.4c0.3,0,0.3,0.1,0.3,0.2c0,0.2-0.1,0.2-0.4,0.2c-0.8,0-1.9-0.1-2.6-0.1c-0.2,0-1.5,0.1-2.7,0.1
				c-0.3,0-0.4-0.1-0.4-0.2c0-0.1,0.1-0.2,0.3-0.2c0.2,0,0.5,0,0.7,0c1.1-0.2,1.5-0.9,2-2l6.2-14.4c0.3-0.6,0.5-0.9,0.7-0.9
				c0.3,0,0.5,0.2,0.7,0.7c0.6,1.3,4.5,10.6,6,14.1c0.9,2.1,1.6,2.4,2,2.4c0.3,0.1,0.6,0.1,0.9,0.1c0.2,0,0.3,0.1,0.3,0.2
				c0,0.2-0.1,0.2-1,0.2c-0.8,0-2.6,0-4.5-0.1c-0.4,0-0.7,0-0.7-0.2c0-0.1,0.1-0.2,0.3-0.2c0.2,0,0.3-0.2,0.2-0.5l-1.8-4.6
				c-0.1-0.1-0.1-0.2-0.2-0.2H184.6z M189.7,21.1c0.1,0,0.1-0.1,0.1-0.1l-2.2-5.8c0-0.1-0.1-0.2-0.1-0.2c-0.1,0-0.1,0.1-0.1,0.2
				L185,21c-0.1,0.1,0,0.2,0.1,0.2H189.7z"/>
		</g>
	</g>
	<g id="XMLID_1569_">
		<g id="XMLID_1570_">
			<g id="XMLID_1571_">
				<linearGradient id="XMLID_2_" gradientUnits="userSpaceOnUse" x1="16.9454" y1="26.1354" x2="26.4129" y2="26.1354">
					<stop  offset="0.1656" style="stop-color:#31BADA"/>
					<stop  offset="1" style="stop-color:#FFFFFF"/>
				</linearGradient>
				<path id="XMLID_1648_" class="st1" d="M25.8,31.6c0.1,0,0.1,0.1,0.2,0.1c0.1,0,0.1,0,0.2,0c0.1,0,0.1,0,0.2-0.1
					c0,0.1-0.1,0.3-0.1,0.4c-0.1,0.2-0.1,0.5-0.2,0.7c0,0,0,0,0,0c0,0.1-0.1,0.2-0.2,0.3c-0.1,0.1-0.2,0.1-0.3,0.2
					c-0.1,0-0.2,0-0.4,0c-0.1,0-0.3-0.1-0.4-0.1c-0.2-0.1-0.4-0.2-0.6-0.3c-0.2-0.1-0.4-0.3-0.6-0.4c-0.4-0.3-0.8-0.7-1.2-1.1
					c-0.4-0.4-0.7-0.8-1.1-1.3c-0.3-0.5-0.7-0.9-1-1.4c-0.3-0.6-0.6-1.1-0.9-1.7c-0.3-0.6-0.6-1.2-0.8-1.9c-0.3-0.7-0.5-1.4-0.7-2.1
					c-0.2-0.8-0.5-1.5-0.6-2.3c-0.1-0.6-0.3-1.2-0.4-1.8l0,0c0.8,0.6,1.6,1.3,2.4,1.9c0,0.1,0.1,0.2,0.1,0.4c0.3,1,0.6,1.9,1,2.9
					c0.3,0.9,0.7,1.7,1.1,2.5c0.3,0.7,0.7,1.4,1.2,2c0.4,0.5,0.8,1.1,1.2,1.5c0.2,0.2,0.4,0.5,0.7,0.7c0.2,0.2,0.4,0.3,0.6,0.5
					C25.5,31.5,25.6,31.6,25.8,31.6z"/>
				<path id="XMLID_1647_" class="st2" d="M26.7,31.2c0,0.1,0,0.1-0.1,0.2c0,0,0,0,0,0.1c0,0.1-0.1,0.1-0.1,0.2c0,0,0,0,0,0
					c0.1-0.2,0.2-0.5,0.3-0.7c0,0,0,0,0,0C26.7,31,26.7,31.1,26.7,31.2z"/>
				<path id="XMLID_1646_" class="st2" d="M26.7,30.9c-0.1,0.2-0.2,0.5-0.3,0.7c0,0,0,0,0,0c0-0.1,0-0.2,0.1-0.3c0-0.1,0-0.2,0-0.2
					c0-0.2,0-0.3,0-0.5c0-0.3-0.1-0.5-0.2-0.7c0,0.1,0.1,0.2,0.1,0.3c0,0.1,0.1,0.2,0.1,0.2c0,0.1,0.1,0.2,0.1,0.2
					C26.7,30.8,26.7,30.9,26.7,30.9C26.7,30.9,26.7,30.9,26.7,30.9z"/>
				<path id="XMLID_1645_" class="st2" d="M27,30.1c-0.1,0.3-0.2,0.6-0.3,0.9c0-0.1,0-0.1,0-0.2c0-0.1-0.1-0.2-0.1-0.2
					c0-0.1-0.1-0.2-0.1-0.2c0-0.1-0.1-0.2-0.1-0.3c0,0,0-0.1,0-0.1c-0.1-0.1-0.1-0.3-0.2-0.4C26.1,29.3,26,29.2,26,29
					c-0.1-0.3-0.2-0.6-0.2-0.9l0,0C26.2,28.8,26.7,29.4,27,30.1z"/>
				<linearGradient id="XMLID_3_" gradientUnits="userSpaceOnUse" x1="22.659" y1="23.0017" x2="27.8791" y2="23.0017">
					<stop  offset="0.1656" style="stop-color:#31BADA"/>
					<stop  offset="1" style="stop-color:#FFFFFF"/>
				</linearGradient>
				<path id="XMLID_1644_" class="st3" d="M22.7,18.5c0.8,0.4,1.6,0.8,2.5,1.2c0.1,0.2,0.1,0.5,0.2,0.7c0.1,0.4,0.2,0.8,0.4,1.2
					c0.1,0.2,0.1,0.4,0.2,0.5c0.1,0.3,0.2,0.5,0.3,0.8c0,0.1,0.1,0.1,0.1,0.2c0,0.1,0.1,0.2,0.1,0.4c0,0,0,0.1,0,0.1
					c0.6,2,1,3.1,1.4,4c0,0-2.8-2.4-2.8-2.4c0-0.1-0.1-0.2-0.1-0.3c-0.2-0.3-0.3-0.6-0.5-1c-0.1-0.1-0.1-0.3-0.2-0.5
					c-0.2-0.4-0.4-0.8-0.5-1.2c-0.3-0.8-0.6-1.7-0.8-2.5C22.8,19.3,22.7,18.9,22.7,18.5C22.7,18.5,22.7,18.5,22.7,18.5z"/>
				<path id="XMLID_1643_" class="st4" d="M28.6,18.3c-0.5,0.5-1,1.1-1.5,1.6c0,0,0-0.1,0.1-0.1c0-0.1,0.1-0.2,0.1-0.3
					c0-0.2,0.1-0.4,0.1-0.5c0-0.2,0-0.4,0-0.6C27.9,18.5,28.2,18.7,28.6,18.3z"/>
				<path id="XMLID_1642_" class="st5" d="M24.6,17.3c0.9,0.4,1.9,0.9,2.8,1.1h0c0,0.2,0,0.4,0,0.6c0,0.2,0,0.4-0.1,0.5
					c0,0.1-0.1,0.2-0.1,0.3c0,0,0,0.1-0.1,0.1c0,0,0,0.1-0.1,0.1c-0.1,0.1-0.1,0.1-0.2,0.1c-0.1,0-0.1,0-0.2,0c-0.1,0-0.2,0-0.3,0
					c-0.1,0-0.2,0-0.3-0.1C26,20,25.8,20,25.7,19.9c-0.2-0.1-0.4-0.2-0.6-0.2c-0.2-0.6-0.3-1.3-0.5-1.9
					C24.6,17.6,24.6,17.5,24.6,17.3L24.6,17.3L24.6,17.3z"/>
				<path id="XMLID_1641_" class="st5" d="M29.4,13c0.7-0.1,1.4-0.1,2-0.6c0,0,0,0,0,0.1c0,0.2,0,0.4-0.1,0.5c0,0.1,0,0.3-0.1,0.4
					c0,0,0,0,0,0c-0.1,0.2-0.1,0.3-0.2,0.5c-0.1,0.1-0.2,0.3-0.4,0.4c-0.2,0.1-0.3,0.2-0.5,0.3c-0.2,0.1-0.5,0.2-0.7,0.2
					c0-0.2,0-0.4,0-0.6C29.4,13.8,29.4,13.4,29.4,13C29.4,13,29.4,13,29.4,13z"/>
				<path id="XMLID_1640_" class="st4" d="M29.4,14.9c0,0.3,0,0.7-0.1,1.1c0,0.3-0.1,0.5-0.1,0.8c-0.1,0.3-0.1,0.5-0.2,0.8
					c-0.1,0.2-0.1,0.4-0.2,0.5c-0.1,0.1-0.1,0.2-0.2,0.3c0,0,0,0,0,0c-0.4,0.4-0.8,0.2-1.2,0.1c0-0.1,0-0.1,0-0.2c0-0.2,0-0.4,0-0.7
					c0-0.5,0-1,0-1.5c0-0.1,0-0.2,0-0.3c0-0.2,0-0.4,0-0.7C28.1,15.1,28.7,15,29.4,14.9C29.4,14.8,29.4,14.8,29.4,14.9
					C29.4,14.8,29.4,14.9,29.4,14.9z"/>
				<path id="XMLID_1639_" class="st6" d="M31.4,12.4c0.2-0.2,0.4-0.3,0.5-0.6l0,0c-0.2,0.5-0.4,1.1-0.6,1.6c0-0.1,0.1-0.3,0.1-0.4
					C31.3,12.8,31.4,12.6,31.4,12.4C31.4,12.4,31.4,12.4,31.4,12.4C31.4,12.4,31.4,12.4,31.4,12.4z"/>
				<path id="XMLID_1638_" class="st6" d="M31.8,11.8c-0.1,0.2-0.3,0.4-0.5,0.6c0,0,0,0,0,0c0-0.2,0-0.4,0-0.5c0-0.1,0-0.2,0-0.3
					c0-0.3,0-0.6,0-0.9c0.3,0,0.5,0,0.8,0c0,0,0,0,0,0.1c0,0.2-0.1,0.5-0.1,0.7C32,11.5,31.9,11.6,31.8,11.8
					C31.9,11.8,31.8,11.8,31.8,11.8L31.8,11.8z"/>
				<path id="XMLID_1637_" class="st6" d="M32.2,10.3c0,0.1,0,0.2-0.1,0.3c-0.3,0-0.5,0-0.8,0c0-0.1,0-0.2,0-0.3c0-0.3,0-0.5,0-0.8
					c0-0.2,0-0.5,0.1-0.7l0,0c0.9-0.3,1.5-0.8,2.2-1.5c-0.3,0.7-0.7,1.3-1,2c-0.1,0.2-0.2,0.3-0.2,0.5c0,0.1-0.1,0.2-0.1,0.3
					C32.3,10.1,32.2,10.2,32.2,10.3z"/>
				<path id="XMLID_1636_" class="st5" d="M32.6,10.5c-0.2,0.1-0.3,0.1-0.5,0.1h0c0-0.1,0-0.2,0.1-0.3c0-0.1,0.1-0.2,0.1-0.3
					c0-0.1,0.1-0.2,0.1-0.3c0.1-0.2,0.2-0.3,0.2-0.5c0.3-0.7,0.7-1.3,1-2c0,0,0,0,0,0C34,7,34.2,6.7,34.5,6.4l0,0
					c0.1-0.1,0.2-0.1,0.3-0.2c0,0.1-0.1,0.3-0.1,0.4c0,0,0,0.1,0,0.1c-0.1,0.2-0.1,0.4-0.1,0.5c-0.1,0.3-0.1,0.6-0.2,0.9
					c0,0.1-0.1,0.3-0.1,0.4c-0.1,0.3-0.3,0.7-0.4,1c-0.1,0.1-0.2,0.3-0.3,0.4c-0.1,0.1-0.2,0.2-0.3,0.3
					C32.9,10.4,32.8,10.4,32.6,10.5z"/>
				<path id="XMLID_1635_" class="st5" d="M34.5,6.4C34.2,6.7,34,7,33.7,7.3c0,0,0,0,0,0c0,0,0,0,0,0c0.1-0.2,0.2-0.4,0.3-0.6
					c0,0,0-0.1,0-0.1C34.2,6.5,34.3,6.5,34.5,6.4z"/>
				<path id="XMLID_1634_" class="st5" d="M34.9,5.9c0,0.1-0.1,0.2-0.1,0.3c-0.1,0.1-0.2,0.1-0.3,0.2l0,0
					C34.6,6.2,34.8,6.1,34.9,5.9C34.9,5.9,34.9,5.9,34.9,5.9z"/>
				<path id="XMLID_1633_" class="st6" d="M34.9,6c0,0.1-0.1,0.2-0.1,0.2c0,0,0,0,0,0C34.8,6.1,34.9,6,34.9,6
					c0.1-0.2,0.2-0.4,0.3-0.5l0,0c0,0,0,0,0,0.1c0,0-0.1,0.1-0.1,0.1C35.1,5.7,35,5.8,34.9,6z"/>
				<path id="XMLID_1632_" class="st4" d="M27.4,13L27.4,13c0.6,0,1.3,0,1.9,0c0,0.4,0,0.8,0,1.3c0,0.2,0,0.4,0,0.6c0,0,0,0,0,0
					c-0.6,0.2-1.3,0.3-2,0.2c0-0.3,0-0.7,0-1C27.4,13.7,27.4,13.4,27.4,13z"/>
				<path id="XMLID_1631_" class="st5" d="M29.7,8.9C29.7,8.9,29.7,8.9,29.7,8.9c0.6,0,1.2,0,1.7-0.1c0,0,0,0,0,0
					c0,0.2,0,0.5-0.1,0.7c0,0.3,0,0.5,0,0.8c0,0.1,0,0.2,0,0.3c-0.7,0-1.3-0.1-2-0.1c0-0.2,0-0.4,0.1-0.6c0-0.3,0.1-0.6,0.2-0.9
					C29.7,9,29.7,8.9,29.7,8.9L29.7,8.9z"/>
				<path id="XMLID_1630_" class="st5" d="M31.4,8.7L31.4,8.7C31.4,8.7,31.4,8.7,31.4,8.7c-0.6,0.2-1.2,0.1-1.7,0.2c0,0,0,0,0,0
					c0.1-0.2,0.2-0.5,0.3-0.7c0.2-0.3,0.3-0.6,0.5-0.9c0.1-0.1,0.1-0.2,0.2-0.3c0,0,0,0,0,0c0.3,0,0.7,0,1-0.1
					c-0.1,0.3-0.1,0.5-0.2,0.8C31.5,8.1,31.5,8.4,31.4,8.7z"/>
				<path id="XMLID_1629_" class="st4" d="M29.4,10.5L29.4,10.5c-0.7,0-1.3,0-2,0c0-0.1,0-0.2,0-0.3c0-0.4,0.1-0.9,0.1-1.3
					c0.7,0,1.4-0.1,2.1-0.1c0,0,0,0.1,0,0.1c-0.1,0.3-0.1,0.6-0.2,0.9C29.5,10.1,29.4,10.3,29.4,10.5z"/>
				<path id="XMLID_1628_" class="st4" d="M29.4,10.5L29.4,10.5c0,0.2,0,0.3,0,0.5c0,0.4,0,0.9,0,1.3c0,0.2,0,0.4,0,0.7
					c-0.7,0.1-1.3,0.1-1.9,0h0c0-0.3,0-0.5,0-0.8c0-0.6,0-1.1,0-1.7C28.1,10.5,28.8,10.5,29.4,10.5z"/>
				<path id="XMLID_1627_" class="st5" d="M22.4,16.7c0,0.6,0.1,1.2,0.2,1.8c-1.4-0.7-2.8-1.3-4.2-1.8c0-0.1,0-0.3,0-0.4
					c0-0.4,0-0.9,0-1.3c0,0,0,0,0,0c1.4,0.4,2.7,0.9,4,1.4C22.4,16.5,22.4,16.6,22.4,16.7z"/>
				<path id="XMLID_1626_" class="st5" d="M36.2,3.3c-0.1,0.2-0.3,0.4-0.4,0.6C35.5,4.5,35.2,5,35,5.6c0,0.1-0.1,0.2-0.1,0.3
					c0,0,0,0,0,0c-0.1,0.2-0.3,0.3-0.4,0.5c-0.2,0.1-0.3,0.1-0.5,0.2c0.1-0.2,0.2-0.5,0.3-0.7c0-0.1,0.1-0.2,0.1-0.2
					c0-0.1,0.1-0.2,0.2-0.3c0.3-0.5,0.6-1.1,0.9-1.6c0,0,0-0.1,0.1-0.1C35.7,3.6,35.9,3.4,36.2,3.3z"/>
				<path id="XMLID_1625_" class="st6" d="M35.4,5.3c1.4-1.6,2.5-3.5,3.8-5.1c-0.7,1-1.4,2-2,3c-0.6,1.1-1.1,2.2-2.3,3l0,0
					c0-0.1,0.1-0.2,0.1-0.2c0.1-0.1,0.1-0.2,0.2-0.3c0-0.1,0.1-0.1,0.1-0.1C35.3,5.5,35.3,5.4,35.4,5.3C35.3,5.4,35.3,5.4,35.4,5.3z
					"/>
				<path id="XMLID_1624_" class="st6" d="M39.2,0.2c-1.4,1.6-2.5,3.5-3.8,5.1c0,0,0,0-0.1,0.1l0,0c-0.1,0.2-0.2,0.3-0.4,0.5
					c0-0.1,0.1-0.2,0.1-0.3c0.2-0.6,0.5-1.2,0.7-1.7c0.1-0.2,0.3-0.4,0.4-0.6c0,0,0,0,0,0c1.1-0.7,1.8-1.6,2.5-2.6
					c0.2-0.2,0.4-0.4,0.6-0.6C39.2,0.1,39.2,0.2,39.2,0.2z"/>
				<path id="XMLID_1623_" class="st2" d="M38.6,0.7c-0.7,1-1.4,1.9-2.5,2.6c0,0,0,0,0,0c0,0,0,0,0,0c0.1-0.2,0.3-0.4,0.5-0.6
					c0.1-0.2,0.3-0.3,0.5-0.5c0,0,0,0,0,0C37.6,1.7,38.1,1.2,38.6,0.7z"/>
				<path id="XMLID_1622_" class="st2" d="M38.6,0.7c0.1-0.1,0.1-0.2,0.2-0.3C39,0.3,39.1,0.2,39.3,0c0,0,0,0,0,0.1
					C39,0.3,38.8,0.5,38.6,0.7z"/>
				<path id="XMLID_1621_" class="st5" d="M35.9,3c0.4-0.3,0.8-0.6,1.1-0.9c-0.2,0.2-0.3,0.3-0.5,0.5c-0.2,0.2-0.3,0.4-0.5,0.6
					c0,0,0,0,0,0c-0.2,0.1-0.4,0.3-0.6,0.4c0.1-0.1,0.1-0.2,0.2-0.4C35.8,3.2,35.9,3.1,35.9,3C35.9,3,35.9,3,35.9,3z"/>
				<path id="XMLID_1620_" class="st2" d="M39.3,0c-0.2,0.1-0.3,0.2-0.5,0.3c0.1-0.2,0.2-0.3,0.3-0.5L39.3,0L39.3,0z"/>
				<path id="XMLID_1619_" class="st2" d="M38.8,0.4c-0.1,0.1-0.1,0.2-0.2,0.3c-0.5,0.5-1,1-1.5,1.5c0.3-0.3,0.6-0.6,0.8-0.9
					c0.2-0.2,0.3-0.3,0.5-0.5c0-0.1,0.1-0.1,0.1-0.2C38.6,0.5,38.7,0.4,38.8,0.4C38.8,0.4,38.8,0.4,38.8,0.4z"/>
				<path id="XMLID_1618_" class="st6" d="M32.3,5.3c1.1-0.5,2.2-1,3.2-1.7c0,0,0,0,0,0c0,0,0,0.1-0.1,0.1c-0.3,0.5-0.6,1-0.9,1.6
					c-0.1,0.1-0.1,0.2-0.2,0.3c0,0.1-0.1,0.2-0.1,0.2c-0.1,0.2-0.2,0.5-0.3,0.7c-0.7,0.2-1.5,0.3-2.2,0.4h0c0.1-0.3,0.1-0.5,0.2-0.8
					C32.1,5.9,32.2,5.6,32.3,5.3C32.3,5.3,32.3,5.3,32.3,5.3z"/>
				<path id="XMLID_1617_" class="st7" d="M39.2-0.1L39.2-0.1L39.2-0.1C39.2-0.1,39.2-0.1,39.2-0.1C39.2-0.1,39.2-0.1,39.2-0.1z"/>
				<path id="XMLID_1616_" class="st2" d="M38.5,0.6c0.2-0.2,0.4-0.4,0.6-0.7c0,0,0,0,0,0l0,0h0l0,0c-0.1,0.2-0.2,0.3-0.3,0.5
					c0,0,0,0,0,0C38.7,0.4,38.6,0.5,38.5,0.6z"/>
				<path id="XMLID_1615_" class="st5" d="M37.1,2.1c-0.3,0.3-0.7,0.6-1.1,0.9c0,0,0,0,0,0C36,3,36,2.9,36.1,2.9
					c0.2-0.2,0.4-0.5,0.6-0.7c0.2-0.3,0.5-0.5,0.8-0.7c0.3-0.3,0.7-0.6,1.1-0.9c0,0,0,0,0,0c0,0.1-0.1,0.1-0.1,0.2
					c-0.2,0.2-0.3,0.3-0.5,0.5C37.6,1.5,37.4,1.9,37.1,2.1C37.1,2.1,37.1,2.1,37.1,2.1z"/>
				<path id="XMLID_1614_" class="st8" d="M24.4,14.6C24.4,14.6,24.4,14.6,24.4,14.6c-0.6-0.1-1.2-0.3-1.9-0.4
					c0.1-0.4,0.1-0.7,0.2-1c0.1-0.3,0.2-0.5,0.2-0.7c0.5,0.1,1.1,0.2,1.6,0.3c-0.1,0.3-0.1,0.7-0.1,1C24.4,13.9,24.4,14.3,24.4,14.6
					z"/>
				<path id="XMLID_1613_" class="st8" d="M24.4,14.6c0,0.4,0,0.7,0,1.1c0,0.5,0.1,1.1,0.2,1.6l0,0c-0.7-0.3-1.4-0.6-2.2-0.9v0
					c0-0.3,0-0.6,0-0.9c0-0.4,0-0.8,0.1-1.2c0-0.1,0-0.1,0-0.2C23.1,14.3,23.7,14.4,24.4,14.6C24.4,14.6,24.4,14.6,24.4,14.6z"/>
				<path id="XMLID_1612_" class="st8" d="M22.4,16.4c0.7,0.3,1.4,0.6,2.2,0.9c0,0.2,0.1,0.3,0.1,0.5c0.1,0.6,0.3,1.3,0.5,1.9
					c-0.8-0.4-1.6-0.8-2.5-1.2c0,0,0,0,0,0c-0.1-0.6-0.2-1.2-0.2-1.8C22.4,16.6,22.4,16.5,22.4,16.4L22.4,16.4L22.4,16.4z"/>
				<path id="XMLID_1611_" class="st6" d="M31.7,6.9L31.7,6.9c0.8-0.1,1.5-0.1,2.3-0.4c0,0,0,0.1,0,0.1c-0.1,0.2-0.2,0.4-0.3,0.6
					c0,0,0,0,0,0c-0.7,0.6-1.3,1.2-2.2,1.5c0-0.3,0.1-0.7,0.1-1C31.6,7.5,31.7,7.2,31.7,6.9z"/>
				<path id="XMLID_1610_" class="st4" d="M29.7,8.9L29.7,8.9c-0.7,0-1.4,0-2.1,0.1c0-0.1,0-0.3,0.1-0.4c0.1-0.4,0.2-0.9,0.4-1.2
					c0,0,0,0,0.1,0C29,7.1,29.9,7.1,30.8,7c-0.1,0.1-0.1,0.2-0.2,0.3c-0.2,0.3-0.4,0.6-0.5,0.9C29.9,8.4,29.8,8.7,29.7,8.9z"/>
				<path id="XMLID_1609_" class="st2" d="M39.1-0.1c-0.2,0.2-0.4,0.5-0.6,0.7c0,0,0,0,0,0c-0.4,0.3-0.7,0.6-1.1,0.9
					c-0.3,0.2-0.5,0.5-0.8,0.7c-0.2,0.2-0.4,0.4-0.6,0.7C36,2.9,36,3,35.9,3c-0.6,0.4-1.3,0.7-2,0.9c-0.1,0-0.1,0-0.2,0.1
					c0.6-0.5,1.2-1,1.9-1.5C36.7,1.6,38,0.9,39.1-0.1C39.1,0,39.1-0.1,39.1-0.1z"/>
				<path id="XMLID_1608_" class="st5" d="M30.8,7C30.8,7,30.8,7,30.8,7c0.2-0.2,0.4-0.4,0.5-0.7c0.2-0.2,0.3-0.4,0.5-0.5
					c0.2-0.2,0.3-0.3,0.5-0.5c0,0,0,0,0.1,0c-0.1,0.3-0.3,0.5-0.4,0.8c-0.1,0.2-0.2,0.5-0.2,0.8C31.4,7,31.1,7,30.8,7z"/>
				<path id="XMLID_1607_" class="st6" d="M35.5,3.7c-1,0.6-2.1,1.1-3.2,1.7c0,0,0,0,0,0c0,0,0,0,0-0.1c0,0,0,0,0,0
					c0.4-0.4,0.9-0.8,1.4-1.3c0.1,0,0.1,0,0.2-0.1c0.7-0.3,1.4-0.5,2-0.9c-0.1,0.1-0.1,0.2-0.2,0.3C35.7,3.4,35.6,3.6,35.5,3.7
					C35.5,3.7,35.5,3.7,35.5,3.7z"/>
				<path id="XMLID_1606_" class="st4" d="M30.3,6.4c0.4-0.2,0.7-0.4,1.1-0.6c0.3-0.1,0.5-0.3,0.8-0.4c-0.2,0.1-0.3,0.3-0.5,0.5
					c-0.2,0.2-0.3,0.4-0.5,0.5c-0.2,0.2-0.4,0.4-0.5,0.7c-0.9,0.1-1.7,0.1-2.6,0.3c0.1,0,0.1-0.1,0.2-0.1c0.1,0,0.1,0,0.2-0.1
					c0,0,0,0,0,0C28.8,7.1,29,7,29.2,7c0.2-0.1,0.3-0.1,0.5-0.2c0.1-0.1,0.3-0.1,0.4-0.2C30.2,6.5,30.3,6.5,30.3,6.4z"/>
				<path id="XMLID_1605_" class="st6" d="M33.7,4c-0.5,0.4-0.9,0.8-1.4,1.3c0,0,0,0,0,0c0.1-0.1,0.1-0.2,0.2-0.4
					c0.1-0.2,0.3-0.5,0.5-0.7c0,0,0,0,0,0c0,0,0,0,0,0C33.3,4.2,33.5,4.1,33.7,4z"/>
				<path id="XMLID_1604_" class="st4" d="M32.6,4.9c-0.1,0.1-0.2,0.2-0.2,0.4c0,0-0.1,0.1-0.1,0.1c-0.3,0.1-0.5,0.3-0.8,0.4
					c-0.4,0.2-0.7,0.4-1.1,0.6c-0.1,0-0.2,0.1-0.2,0.1c-0.1,0.1-0.3,0.1-0.4,0.2c-0.2,0.1-0.3,0.1-0.5,0.2C29,7,28.8,7.1,28.6,7.2
					c0,0,0,0,0,0c-0.1,0-0.3,0.1-0.4,0.1c0.2-0.3,0.4-0.7,0.7-1c0.3-0.3,0.6-0.6,1-0.8c0.4-0.2,0.8-0.4,1.2-0.6
					c0.2-0.1,0.4-0.1,0.6-0.2c0.1,0,0.2-0.1,0.2-0.1c0.3-0.1,0.5-0.2,0.8-0.3c0.2,0,0.3-0.1,0.5-0.1C32.9,4.5,32.7,4.7,32.6,4.9z"/>
				<path id="XMLID_1603_" class="st8" d="M18.8,18.5c0,0.1,0,0.2,0.1,0.3l0,0c-0.7-0.5-1.4-1-2-1.5l0,0c0,0,0-0.1,0-0.1
					c0-0.4,0-0.8,0.1-1.1c0.6,0.2,1.1,0.4,1.6,0.6C18.5,17.3,18.6,17.9,18.8,18.5z"/>
				<path id="XMLID_1602_" class="st2" d="M33.1,4.3c0.3-0.4,0.7-0.7,1-1c0.2-0.2,0.4-0.3,0.6-0.4c0.4-0.3,0.8-0.5,1.2-0.7
					c0.3-0.2,0.5-0.3,0.8-0.5c0.2-0.1,0.4-0.3,0.6-0.4C38,0.8,38.5,0.4,39,0c-1.1,0.9-2.3,1.6-3.5,2.5c-0.6,0.5-1.2,1-1.9,1.5
					C33.5,4.1,33.3,4.2,33.1,4.3C33.1,4.3,33.1,4.3,33.1,4.3z"/>
				<path id="XMLID_1601_" class="st5" d="M24.5,12.6c1,0.2,1.9,0.3,2.9,0.4c0,0.3,0,0.7,0,1c0,0.3,0,0.7,0,1c-1,0-2-0.2-3-0.5
					c0-0.3,0-0.6,0.1-0.9C24.4,13.3,24.5,13,24.5,12.6C24.5,12.6,24.5,12.6,24.5,12.6z"/>
				<path id="XMLID_1600_" class="st8" d="M24.6,12.5c0,0,0,0.1,0,0.1c-0.5-0.1-1.1-0.2-1.6-0.3c0.1-0.2,0.1-0.3,0.2-0.5
					c0.1-0.3,0.2-0.5,0.3-0.8c0.5-0.1,1-0.2,1.5-0.2c-0.1,0.2-0.1,0.4-0.2,0.6C24.7,11.8,24.6,12.1,24.6,12.5z"/>
				<path id="XMLID_1599_" class="st5" d="M22.5,14.1C22.5,14.1,22.5,14.1,22.5,14.1c-1.3-0.3-2.5-0.5-3.8-0.5
					c0.1-0.2,0.2-0.5,0.3-0.7c0.1-0.1,0.1-0.2,0.2-0.3c0.3-0.2,0.6-0.4,0.9-0.5c0,0,0,0,0,0c1,0,1.9,0,2.8,0.2
					c-0.1,0.2-0.2,0.5-0.2,0.7C22.6,13.4,22.5,13.8,22.5,14.1z"/>
				<path id="XMLID_1598_" class="st5" d="M27.6,9c-0.1,0.4-0.1,0.8-0.1,1.3c0,0.1,0,0.2,0,0.3h0c-0.8,0.1-1.6,0.1-2.4,0.3
					c0,0,0,0,0,0c0.2-0.4,0.4-0.9,0.6-1.3c0.1-0.1,0.2-0.3,0.2-0.4C26.5,9.1,27,9,27.6,9L27.6,9z"/>
				<path id="XMLID_1597_" class="st5" d="M28.1,7.3c-0.2,0.4-0.3,0.8-0.4,1.2c0,0.1-0.1,0.3-0.1,0.4h0c-0.6,0-1.1,0.1-1.7,0.2
					C26,9,26.1,8.9,26.2,8.7c0.2-0.2,0.4-0.4,0.6-0.6C27,8,27.2,7.8,27.4,7.7C27.6,7.5,27.9,7.4,28.1,7.3
					C28.1,7.3,28.1,7.3,28.1,7.3z"/>
				<path id="XMLID_1596_" class="st8" d="M25.9,9.1c-0.1,0.1-0.2,0.2-0.2,0.4c-0.2,0.4-0.4,0.8-0.6,1.3c-0.5,0.1-1,0.2-1.5,0.2
					c0.1-0.2,0.2-0.3,0.3-0.5c0.2-0.4,0.4-0.7,0.7-1.1c0,0,0-0.1,0.1-0.1c0,0,0,0,0,0C24.9,9.3,25.4,9.2,25.9,9.1L25.9,9.1z"/>
				<path id="XMLID_1595_" class="st8" d="M16.9,18.9L16.9,18.9c0,0,0-0.1,0-0.1c-0.1-0.5-0.1-1-0.1-1.5l0,0c0.7,0.5,1.4,1,2,1.5
					l0,0c0.2,0.7,0.3,1.4,0.6,2.1C18.6,20.2,17.8,19.6,16.9,18.9z"/>
				<path id="XMLID_1594_" class="st8" d="M28.1,7.3C28.1,7.3,28.1,7.3,28.1,7.3C28.1,7.3,28.1,7.3,28.1,7.3
					c-0.3,0.1-0.5,0.2-0.7,0.4C27.2,7.8,27,8,26.8,8.1c-0.2,0.2-0.4,0.4-0.6,0.6C26.1,8.9,26,9,25.9,9.1h0c-0.5,0.1-0.9,0.2-1.4,0.3
					c0,0,0,0,0,0C24.7,9.2,24.9,9,25,8.8c0.2-0.2,0.4-0.4,0.7-0.6c0.3-0.2,0.6-0.3,0.9-0.5c0.3-0.1,0.7-0.2,1-0.3
					C27.8,7.4,28,7.3,28.1,7.3C28.1,7.3,28.1,7.3,28.1,7.3C28.1,7.3,28.1,7.3,28.1,7.3C28.1,7.3,28.1,7.3,28.1,7.3z"/>
				<path id="XMLID_1593_" class="st8" d="M18.4,15c0,0.4,0,0.9,0,1.3c0,0.1,0,0.3,0,0.4c-0.5-0.2-1.1-0.4-1.6-0.6c0,0,0-0.1,0-0.1
					c0.1-0.4,0.1-0.7,0.3-1c0-0.1,0.1-0.2,0.2-0.3c0,0,0,0,0,0C17.7,14.7,18,14.8,18.4,15L18.4,15C18.4,14.9,18.4,15,18.4,15z"/>
				<path id="XMLID_1592_" class="st8" d="M18.6,13.9c-0.1,0.3-0.1,0.7-0.2,1c-0.4-0.1-0.8-0.2-1.2-0.3c0,0,0,0,0,0
					c0.1-0.2,0.2-0.4,0.4-0.6c0.1-0.1,0.2-0.2,0.3-0.4h0c0.2,0,0.5,0,0.7,0c0,0,0,0,0,0C18.6,13.7,18.6,13.8,18.6,13.9z"/>
				<path id="XMLID_1591_" class="st5" d="M20.1,12.1c-0.3,0.2-0.6,0.3-0.9,0.5c0.1-0.2,0.2-0.3,0.4-0.5
					C19.7,12.1,19.9,12.1,20.1,12.1z"/>
				<path id="XMLID_1590_" class="st5" d="M19.6,12.1c0.2-0.3,0.5-0.5,0.8-0.7c0.4-0.3,0.8-0.5,1.2-0.7c0.5-0.3,1-0.5,1.5-0.7
					c0.5-0.2,0.9-0.4,1.4-0.5c0,0,0,0.1-0.1,0.1c-0.2,0.3-0.5,0.7-0.7,1.1c-0.1,0.2-0.2,0.3-0.3,0.5h0c-1.2,0.2-2.3,0.5-3.4,1.1
					C19.9,12.1,19.7,12.1,19.6,12.1C19.5,12.2,19.5,12.2,19.6,12.1C19.6,12.1,19.6,12.1,19.6,12.1z"/>
				<path id="XMLID_1589_" class="st8" d="M18.4,13.2c0.2-0.2,0.5-0.4,0.8-0.6c0,0,0,0,0,0C19.1,12.7,19,12.9,19,13
					c-0.1,0.2-0.2,0.5-0.3,0.7c0,0,0,0,0,0c-0.3,0-0.5,0-0.7,0h0C18.1,13.5,18.2,13.4,18.4,13.2C18.4,13.2,18.4,13.2,18.4,13.2
					L18.4,13.2z"/>
				<path id="XMLID_1588_" class="st9" d="M19.5,12.2L19.5,12.2c-0.1,0.2-0.3,0.3-0.4,0.5c0,0,0,0,0,0c-0.3,0.2-0.5,0.4-0.8,0.6h0
					C18.8,12.9,19.2,12.5,19.5,12.2L19.5,12.2z"/>
				<path id="XMLID_1587_" class="st5" d="M16.8,16.1c-1.1-0.4-2.2-0.6-3.4-0.9c-0.1,0-0.2-0.1-0.3-0.1c0.7-0.4,1.3-0.7,2-0.9
					c0,0,0,0,0,0c0.7,0.1,1.4,0.2,2,0.4c-0.1,0.1-0.1,0.2-0.2,0.3c-0.1,0.3-0.2,0.7-0.3,1C16.8,16,16.8,16.1,16.8,16.1z"/>
				<path id="XMLID_1586_" class="st5" d="M13.5,15.3c-0.1,0-0.2,0-0.4-0.1c0,0,0.1,0,0.1-0.1C13.3,15.2,13.4,15.2,13.5,15.3z"/>
				<path id="XMLID_1585_" class="st5" d="M15.2,14.2c-0.7,0.2-1.3,0.5-2,0.9c0,0-0.1,0-0.1,0c0,0,0-0.1,0.1-0.1
					c0.1-0.1,0.2-0.2,0.2-0.3c0.2-0.2,0.5-0.4,0.7-0.6c0,0,0,0,0,0C14.5,14.1,14.8,14.2,15.2,14.2z"/>
				<path id="XMLID_1584_" class="st5" d="M13.1,15.2C13.1,15.2,13.1,15.2,13.1,15.2c0,0-0.1,0.1-0.2,0.1C13,15.3,13,15.2,13.1,15.2
					C13,15.2,13.1,15.2,13.1,15.2z"/>
				<path id="XMLID_1583_" class="st5" d="M13.1,15.1C13.1,15.1,13.2,15.1,13.1,15.1c0.1,0.1,0,0.1,0,0.1c0,0,0,0,0,0
					C13.1,15.2,13,15.2,13.1,15.1C13,15.1,13.1,15.1,13.1,15.1z"/>
				<path id="XMLID_1582_" class="st5" d="M15.2,14.2c-0.3-0.1-0.7-0.1-1-0.1c0,0,0,0,0,0c0.1,0,0.1-0.1,0.2-0.1
					c0.3-0.2,0.5-0.3,0.8-0.5c0.3-0.2,0.5-0.3,0.8-0.4c1.1-0.5,2.4-0.8,3.6-0.9c-0.4,0.4-0.7,0.7-1.1,1.1c0,0,0,0,0,0
					c-0.2,0.1-0.3,0.3-0.5,0.5C16.9,13.8,16,13.9,15.2,14.2z"/>
				<path id="XMLID_1581_" class="st9" d="M13.1,15.1C13.1,15.1,13,15.1,13.1,15.1c-0.1,0.1-0.1,0.1-0.2,0.1
					C13,15.1,13,15.1,13.1,15.1C13.1,15.1,13.1,15.1,13.1,15.1z"/>
				<path id="XMLID_1580_" class="st5" d="M13.4,14.7c-0.1,0.1-0.2,0.2-0.2,0.3c0,0,0,0.1-0.1,0.1c0,0,0,0,0,0
					C13.2,15,13.3,14.8,13.4,14.7z"/>
				<path id="XMLID_1579_" class="st9" d="M12.9,15.3c-0.1,0.1-0.1,0.2-0.2,0.3c0,0-0.1-0.1-0.1-0.1C12.7,15.4,12.8,15.3,12.9,15.3
					C12.9,15.3,12.9,15.3,12.9,15.3z"/>
				<path id="XMLID_1578_" class="st9" d="M13,15.2c0,0-0.1,0.1-0.1,0.1c0,0,0,0,0,0c-0.1,0.1-0.2,0.1-0.3,0.2c0,0,0,0,0,0
					C12.7,15.4,12.8,15.3,13,15.2C13,15.2,13,15.2,13,15.2z"/>
				<linearGradient id="XMLID_4_" gradientUnits="userSpaceOnUse" x1="9.8343" y1="27.1608" x2="21.7685" y2="27.1608">
					<stop  offset="0.1656" style="stop-color:#31BADA"/>
					<stop  offset="1" style="stop-color:#FFFFFF"/>
				</linearGradient>
				<path id="XMLID_1577_" class="st10" d="M12.3,16.2c-0.2,0.5-0.4,0.9-0.5,1.5c-0.1,0.5-0.2,1.1-0.2,1.6c0,0.6,0,1.3,0,1.9
					c0.1,0.8,0.2,1.5,0.3,2.3c0.2,0.9,0.4,1.7,0.7,2.6c0.3,0.8,0.6,1.7,0.9,2.5c0.3,0.7,0.7,1.5,1.1,2.2c0.2,0.3,0.4,0.7,0.6,1
					c0.2,0.3,0.4,0.6,0.7,0.9c0.2,0.2,0.3,0.4,0.5,0.7c0.2,0.3,0.4,0.6,0.7,0.8c0.4,0.4,0.7,0.8,1.1,1.2c0.6,0.6,1.2,1.2,1.8,1.8
					c0.6,0.5,1.2,1,1.8,1.4l0,0c-0.6,0-1.2,0-1.8,0.2c-0.7-0.4-1.3-0.9-2-1.3c-0.5-0.3-0.9-0.7-1.4-1.1c-0.4-0.3-0.7-0.6-1.1-1
					c-0.3-0.4-0.7-0.7-1-1.1c-0.4-0.5-0.8-1-1.1-1.5c-0.3-0.5-0.7-1-0.9-1.6c-0.6-1.1-1.1-2.3-1.5-3.5c-0.4-1.3-0.8-2.6-1-4
					c-0.1-0.6-0.2-1.2-0.2-1.9c0-0.6,0-1.1,0-1.7c0-0.5,0.1-0.9,0.2-1.4c0.1-0.4,0.3-0.8,0.4-1.2c0.2-0.4,0.4-0.7,0.7-1.1
					c0.3-0.3,0.5-0.6,0.9-0.9c0.2-0.1,0.4-0.3,0.5-0.4c0,0,0,0,0,0c0,0,0.1,0.1,0.1,0.1C12.6,15.8,12.4,16,12.3,16.2z"/>
				<path id="XMLID_1576_" class="st5" d="M12.9,15.2c-0.2,0-0.5-0.1-0.7-0.1c-0.2-0.2-0.4-0.5-0.6-0.7c0.5,0.2,1,0.5,1.4,0.7
					C13,15.1,13,15.1,12.9,15.2C12.9,15.2,12.9,15.2,12.9,15.2z"/>
				<path id="XMLID_1575_" class="st5" d="M11.2,13.9c0.1,0.1,0.3,0.3,0.4,0.4c-0.3-0.1-0.6-0.3-0.9-0.4
					C10.9,13.9,11.1,13.9,11.2,13.9z"/>
				<path id="XMLID_1574_" class="st5" d="M13.1,15.1c-0.5-0.2-1-0.5-1.4-0.7c-0.1-0.1-0.3-0.3-0.4-0.4c0,0,0.1,0,0.1,0
					c0.9,0,1.9,0.1,2.8,0.2c-0.3,0.2-0.5,0.4-0.7,0.6C13.3,14.8,13.2,15,13.1,15.1z"/>
				<path id="XMLID_1573_" class="st5" d="M4.9,14.9c0.5-0.2,1.1-0.4,1.6-0.5C7.2,14.2,8,14.1,8.7,14c0.7-0.1,1.4-0.1,2.1-0.1l0,0
					c0.3,0.2,0.6,0.3,0.9,0.4c0.2,0.2,0.4,0.5,0.6,0.7c-2.7-0.4-5.3-0.6-8,0.2c0.2-0.1,0.4-0.2,0.6-0.3C4.8,14.9,4.9,14.9,4.9,14.9z
					"/>
				<linearGradient id="XMLID_5_" gradientUnits="userSpaceOnUse" x1="-1.960784e-003" y1="17.8078" x2="4.2153" y2="17.8078">
					<stop  offset="0" style="stop-color:#FFFFFF"/>
					<stop  offset="0.8344" style="stop-color:#31BADA"/>
				</linearGradient>
				<path id="XMLID_1572_" class="st11" d="M4.2,15.3C4.2,15.3,4.2,15.3,4.2,15.3c-0.2,0.1-0.4,0.3-0.5,0.4
					c-0.1,0.1-0.3,0.3-0.4,0.4c-0.1,0.2-0.2,0.3-0.3,0.5C2.7,17,2.4,17.5,2.2,18C2.1,18.2,2,18.5,2,18.7c-0.2,0.4-0.3,0.9-0.4,1.3
					c0,0.1-0.1,0.2-0.1,0.3l0,0c-0.4-0.7-0.7-1.5-1.4-2.1c0.2-0.3,0.4-0.5,0.6-0.7c0.1-0.1,0.3-0.3,0.4-0.4c0,0,0.1-0.1,0.1-0.1
					c0.2-0.2,0.4-0.3,0.5-0.5c0.1-0.1,0.1-0.1,0.2-0.2c0.2-0.2,0.4-0.3,0.6-0.5c0.1-0.1,0.2-0.1,0.3-0.2c0.1-0.1,0.3-0.1,0.4-0.2
					c0,0,0.1,0,0.1,0C3.7,15.5,3.9,15.3,4.2,15.3C4.2,15.3,4.2,15.3,4.2,15.3z"/>
			</g>
		</g>
	</g>
</g>
</svg>
